^C:\USERS\KWJ01\DOCUMENTS\VISUAL STUDIO 2015\PROJECTS\MAZE_TREE\MAZE_TREE\STDAFX.CPP
/c /ZI /nologo /W3 /WX- /sdl /Od /Oy- /D WIN32 /D _DEBUG /D _CONSOLE /D _CRT_SECURE_NO_WARNINGS /D _UNICODE /D UNICODE /Gm /EHsc /RTC1 /MDd /GS /fp:precise /Zc:wchar_t /Zc:forScope /Zc:inline /Yc"stdafx.h" /Fp"DEBUG\MAZE_TREE.PCH" /Fo"DEBUG\\" /Fd"DEBUG\VC140.PDB" /Gd /TP /analyze- C:\USERS\KWJ01\DOCUMENTS\VISUAL STUDIO 2015\PROJECTS\MAZE_TREE\MAZE_TREE\STDAFX.CPP
^C:\USERS\KWJ01\DOCUMENTS\VISUAL STUDIO 2015\PROJECTS\MAZE_TREE\MAZE_TREE\MAZE_TREE.CPP
/c /ZI /nologo /W3 /WX- /sdl /Od /Oy- /D WIN32 /D _DEBUG /D _CONSOLE /D _CRT_SECURE_NO_WARNINGS /D _UNICODE /D UNICODE /Gm /EHsc /RTC1 /MDd /GS /fp:precise /Zc:wchar_t /Zc:forScope /Zc:inline /Yu"stdafx.h" /Fp"DEBUG\MAZE_TREE.PCH" /Fo"DEBUG\\" /Fd"DEBUG\VC140.PDB" /Gd /TP /analyze- C:\USERS\KWJ01\DOCUMENTS\VISUAL STUDIO 2015\PROJECTS\MAZE_TREE\MAZE_TREE\MAZE_TREE.CPP
